…
ℹ Use `spec()` to retrieve the full column specification for this data.
ℹ Specify the column types or set `show_col_types = FALSE` to quiet this message.
Summary stats for the screen design by target type: 
# A tibble: 6 × 3
  target_type      n_gRNAs n_guideSets
  <chr>              <int>       <int>
1 DE                   573          42
2 enh                11496         844
3 negative_control     400           1
4 safe_targeting       400           1
5 tss_pos              648          46
6 tss_random          1451         108
# A tibble: 2,099 × 12
   chr     start     end name   strand spacer target_chr target_start target_end
   <chr>   <dbl>   <dbl> <chr>  <chr>  <chr>  <chr>             <dbl>      <dbl>
 1 chr1  3689081 3689101 K562_… -      AAGGG… chr1            3689074    3689574
 2 chr1  3689093 3689113 K562_… -      GGCCA… chr1            3689074    3689574
 3 chr1  3689167 3689187 K562_… -      CCAGT… chr1            3689074    3689574
 4 chr1  3689262 3689282 K562_… +      GCTCC… chr1            3689074    3689574
 5 chr1  3689335 3689355 K562_… +      AGACG… chr1            3689074    3689574
 6 chr1  3689471 3689491 K562_… -      ACCGC… chr1            3689074    3689574
 7 chr1  3689473 3689493 K562_… -      CACCG… chr1            3689074    3689574
 8 chr1  3689515 3689535 K562_… -      AGCCG… chr1            3689074    3689574
 9 chr1  3689557 3689577 K562_… -      AGGGA… chr1            3689074    3689574
10 chr1  3689191 3689211 K562_… -      GGGCC… chr1            3689100    3689600
# ℹ 2,089 more rows
# ℹ 3 more variables: target_name <chr>, target_strand <chr>, target_type <chr>
…
